%YAML 1.1
%TAG !u! tag:unity3d.com,2011:
--- !u!114 &11400000
MonoBehaviour:
  m_ObjectHideFlags: 0
  m_CorrespondingSourceObject: {fileID: 0}
  m_PrefabInstance: {fileID: 0}
  m_PrefabAsset: {fileID: 0}
  m_GameObject: {fileID: 0}
  m_Enabled: 1
  m_EditorHideFlags: 0
  m_Script: {fileID: 11500000, guid: 9e3f44f008dc6194f9ba4760f84a6a2d, type: 3}
  m_Name: Audio
  m_EditorClassIdentifier: 
  night:
    AudioClips:
    - {fileID: 8300000, guid: e99bbb211df7b4f9a82cd1277f46c7fb, type: 3}
    - {fileID: 8300000, guid: c56b3fd52507348d7ae373d811293e6b, type: 3}
  dawn:
    AudioClips:
    - {fileID: 8300000, guid: 0f0bc102858c34d6f9b7304b6526a6e2, type: 3}
    - {fileID: 8300000, guid: e6ab6af2a15e94078a026e657ee55389, type: 3}
  day:
    AudioClips:
    - {fileID: 8300000, guid: ebb88e1451751456abce3b93f4676c88, type: 3}
    - {fileID: 8300000, guid: 4941b3cf00e9747ca85091e7766de067, type: 3}
  looped: 1
  currentIndex: 1
