%YAML 1.1
%TAG !u! tag:unity3d.com,2011:
--- !u!114 &11400000
MonoBehaviour:
  m_ObjectHideFlags: 0
  m_CorrespondingSourceObject: {fileID: 0}
  m_PrefabInstance: {fileID: 0}
  m_PrefabAsset: {fileID: 0}
  m_GameObject: {fileID: 0}
  m_Enabled: 1
  m_EditorHideFlags: 0
  m_Script: {fileID: 11500000, guid: dabe743d0b59f774f888123ce84e021a, type: 3}
  m_Name: SplineNode Target
  m_EditorClassIdentifier: 
  prefab: {fileID: 1620502528868036686, guid: 7ed93502edda5f24c97ee24c821271c8, type: 3}
  preallocateAmount: 100
