%YAML 1.1
%TAG !u! tag:unity3d.com,2011:
--- !u!78 &1
TagManager:
  serializedVersion: 2
  tags:
  - Particle
  layers:
  - Default
  - TransparentFX
  - Ignore Raycast
  - 
  - Water
  - UI
  - 
  - 
  - Jelly
  - Particles
  - NoCollision
  - Player
  - PlayerLimbs
  - 
  - 
  - 
  - 
  - 
  - 
  - 
  - 
  - 
  - 
  - 
  - 
  - 
  - 
  - 
  - 
  - 
  - 
  - 
  m_SortingLayers:
  - name: Background
    uniqueID: 2215600989
    locked: 0
  - name: Default
    uniqueID: 0
    locked: 0
  - name: ForeGround
    uniqueID: 4209119945
    locked: 0
